<svg width="65" height="64" viewBox="0 0 65 64" fill="none" xmlns="http://www.w3.org/2000/svg">
<path d="M23.3833 62.2404L29.0107 63.3736C30.744 63.7236 32.4605 62.7076 32.9973 61.0183L34.0231 57.8422C36.2921 57.7193 38.5297 57.2778 40.6873 56.5449L42.8971 59.1578C44.035 60.5099 46.0148 60.7873 47.4838 59.8125L52.2589 56.6041C53.721 55.6172 54.2357 53.6842 53.4311 52.0992L51.889 49.052C53.4322 47.2844 54.7244 45.32 55.7238 43.1982L59.1866 43.4847C60.9493 43.6266 62.5337 42.4279 62.8814 40.6836L63.994 34.9962C64.3419 33.2518 63.3323 31.5246 61.6537 30.9842L58.1314 29.8352C57.946 27.6694 57.4926 25.5353 56.7815 23.4825L59.5949 21.0743C60.9385 19.9292 61.2142 17.9369 60.2456 16.4588L57.0572 11.6536C56.0765 10.1823 54.1557 9.6643 52.5806 10.474L49.0947 12.2637C47.5724 10.9649 45.9023 9.85981 44.1155 8.94777L44.4368 4.97892C44.5779 3.20527 43.3866 1.61082 41.6533 1.26073L36.026 0.1276C34.2924 -0.222357 32.5762 0.793576 32.0391 2.48297L30.8247 6.24346C28.7557 6.38346 26.709 6.767 24.7411 7.41073L22.1512 4.33685C21.0133 2.98476 19.0335 2.70738 17.5647 3.68203L12.7897 6.89045C11.3276 7.87737 10.8128 9.81018 11.6175 11.3953L13.3624 14.842C11.8899 16.5064 10.6428 18.3498 9.64383 20.3272L5.8686 20.0221C4.10607 19.8802 2.52174 21.0788 2.17378 22.8233L1.04775 28.4861C0.700038 30.2304 1.70967 31.9576 3.38829 32.4979L6.92273 33.6402C7.06001 35.8352 7.47047 38.0067 8.16423 40.0852L5.45932 42.4013C4.11571 43.5464 3.84007 45.5386 4.80868 47.0168L7.99699 51.822C8.97773 53.2933 10.8985 53.8113 12.4736 53.0016L15.5871 51.4025C17.1979 52.839 18.9844 54.0625 20.9033 55.0434L20.6175 58.4968C20.4518 60.2838 21.6498 61.8905 23.3833 62.2404ZM26.3008 22.6198C31.4579 19.1514 38.461 20.5612 41.8952 25.7576C45.342 30.9472 43.9408 37.9944 38.7771 41.4503C33.6199 44.9187 26.6169 43.5089 23.1827 38.3125C19.7358 33.1227 21.1371 26.0757 26.3008 22.6198Z" fill="url(#paint0_linear_203_1140)"/>
<defs>
<linearGradient id="paint0_linear_203_1140" x1="65.8315" y1="49.6486" x2="22.4331" y2="-28.592" gradientUnits="userSpaceOnUse">
<stop stop-color="#243554"/>
<stop offset="1" stop-color="#2476FD"/>
</linearGradient>
</defs>
</svg>
